…
```
# A tibble: 138 x 3
   prep_score prep_score_before prep_score_after
        <dbl>             <dbl>            <dbl>
 1         23                10               13
 2         14                 4               10
 3         16                 3               13
 4         14                 2               12
 5         20                 6               14
 6         13                 6                7
 7          9                 1                8
 8         10                 0               10
 9         12                 0               12
10         10                 0               10
# ... with 128 more rows
```
…
## Item-total correlation 

We can conceptualize the preparation for invation as two scores: the first received for steps taken prior to Feb 24, 2022 (the `Before` prep score) and the second for the steps undertaken after Feb 24 (the `After` prep score), as recorded at the time of data collection ( October - November 20200). 



```r
ds1_prep %>% select(1:4) # + individual preparation items
```

```
# A tibble: 138 x 4
   hromada_code        prep_score prep_score_before prep_score_after
   <chr>                    <dbl>             <dbl>            <dbl>
 1 UA12060190000043514         23                10               13
 2 UA46060370000065608         14                 4               10
 3 UA35060190000079777         16                 3               13
 4 UA35020130000045875         14                 2               12
 5 UA53060250000043118         20                 6               14
 6 UA65060250000073379         13                 6                7
 7 UA51040110000040346          9                 1                8
 8 UA59080230000084731         10                 0               10
 9 UA05100110000070795         12                 0               12
10 UA51100250000055079         10                 0               10
# ... with 128 more rows
```
…
