…
  
ds0 %>% 
  filter(foreign_aid == "Так") %>% 
  select(hromada_name, region_en, countries_australia:countries_japan) %>% 
  pivot_longer(-c(hromada_name, region_en), names_to = "country", values_to = "received") %>% 
  mutate(
    country = str_to_title(str_remove(country, "countries_"))
  ) %>% 
  filter(country %in% top_countries)
```

```
# A tibble: 2,750 × 4
   hromada_name                  region_en country   received
   <chr>                         <chr>     <chr>        <dbl>
 1 Новомосковська міська громада East      Uk               0
 2 Новомосковська міська громада East      Spain            0
 3 Новомосковська міська громада East      Italy            0
 4 Новомосковська міська громада East      Lithuania        0
 5 Новомосковська міська громада East      Germany          1
 6 Новомосковська міська громада East      Poland           1
 7 Новомосковська міська громада East      Romania          0
 8 Новомосковська міська громада East      Usa              0
 9 Новомосковська міська громада East      Ukraine          0
10 Новомосковська міська громада East      France           0
# … with 2,740 more rows
```
…
