Resilience Survey Overview
…
      across(
        .cols = preparation
        ,.fns = ~case_when(
          .  == 0 ~ 0 #"No"
          ,. == 1 ~ 1 #"After Feb 24"
          ,. == 2 ~ 1 #"Before Feb 24"
        )
      )
      ,na.rm = T
    )
  )  %>% 
  select(hromada_code, starts_with("prep_score"),preparation)  
ds1_prep %>% select(1:4)

# A tibble: 138 x 4
   hromada_code        prep_score_combo prep_score_feb prep_score_oct
   <chr>                          <dbl>          <dbl>          <dbl>
 1 UA12060190000043514               23             10             13
 2 UA46060370000065608               14              4             10
 3 UA35060190000079777               16              3             13
 4 UA35020130000045875               14              2             12
 5 UA53060250000043118               20              6             14
 6 UA65060250000073379               13              6              7
 7 UA51040110000040346                9              1              8
 8 UA59080230000084731               10              0             10
 9 UA05100110000070795               12              0             12
10 UA51100250000055079               10              0             10
# ... with 128 more rows
…
Item-total correlations

We can conceptualize hromadas the preparation for invasion as two
quantities:

- prep_score_feb - the number of security measures
implemented as of February 2022

- prep_score_oct - the number of security measures
implemented as of October 2022

ds1_prep %>% select(1:4) # + individual preparation items

# A tibble: 138 x 4
   hromada_code        prep_score_combo prep_score_feb prep_score_oct
   <chr>                          <dbl>          <dbl>          <dbl>
 1 UA12060190000043514               23             10             13
 2 UA46060370000065608               14              4             10
 3 UA35060190000079777               16              3             13
 4 UA35020130000045875               14              2             12
 5 UA53060250000043118               20              6             14
 6 UA65060250000073379               13              6              7
 7 UA51040110000040346                9              1              8
 8 UA59080230000084731               10              0             10
 9 UA05100110000070795               12              0             12
10 UA51100250000055079               10              0             10
# ... with 128 more rows
…
