Resilience Survey Overview
…
      across(
        .cols = preparation
        ,.fns = ~case_when(
          .  == 0 ~ 0 #"No"
          ,. == 1 ~ 1 #"After Feb 24"
          ,. == 2 ~ 1 #"Before Feb 24"
        )
      )
      ,na.rm = T
    )
  )  %>% 
  select(hromada_code, starts_with("prep_score"),preparation)  
ds1_prep %>% select(1:4)

# A tibble: 138 x 4
   hromada_code        prep_score_combo prep_score_feb prep_score_oct
   <chr>                          <dbl>          <dbl>          <dbl>
 1 UA05100110000070795               12              0             12
 2 UA05100170000071290                9              0              9
 3 UA05120070000075759               18              5             13
 4 UA05060130000030729               13              2             11
 5 UA05020110000052014               14              3             11
 6 UA07060370000022360               17              3             14
 7 UA07080170000013585               19              4             15
 8 UA07020130000036300               12              1             11
 9 UA07060290000054842               17              2             15
10 UA07060390000098670                7              0              7
# i 128 more rows
…
Item-total correlations

We can conceptualize hromadas the preparation for invasion as two
quantities:

- prep_score_feb - the number of security measures
implemented as of February 2022

- prep_score_oct - the number of security measures
implemented as of October 2022

# ds1_prep %>% select(1:4) # + individual preparation items
ds_prep_new %>% select(4:8) # + individual preparation items

# A tibble: 138 x 5
   prep_first_aid_water_feb prep_first_aid_fuel_feb prep_reaction_plan_feb prep_evacuation_plan_feb
                      <dbl>                   <dbl>                  <dbl>                    <dbl>
 1                        0                       0                      0                        0
 2                        0                       0                      0                        0
 3                        0                       0                      1                        1
 4                        0                       0                      1                        1
 5                        0                       0                      1                        1
 6                        0                       0                      0                        0
 7                        0                       0                      1                        0
 8                        0                       0                      1                        0
 9                        0                       0                      0                        0
10                        0                       0                      0                        0
# i 128 more rows
# i 1 more variable: prep_reaction_plan_oth_hromadas_feb <dbl>
…
