…
```
Rows: 1,754
Columns: 3
$ unit_ua   [3m[38;5;246m<chr>[39m[23m "Україна", "Міське населення", "Сільське населення", NA, "Автономна Республіка К~
$ pop_count [3m[38;5;246m<chr>[39m[23m "41167335", "28693708", "12473627", NA, "…", NA, "1509515", "789588", "719927", ~
$ unit_en   [3m[38;5;246m<chr>[39m[23m "Ukraine", "Urban population", "Rural population", NA, "Autonomous Republic of C~
```

```r
ds0
```

```
# A tibble: 1,754 x 3
   unit_ua                   pop_count unit_en                      
   <chr>                     <chr>     <chr>                        
 1 Україна                   41167335  Ukraine                      
 2 Міське населення          28693708  Urban population             
 3 Сільське населення        12473627  Rural population             
 4 <NA>                      <NA>      <NA>                         
 5 Автономна Республіка Крим …         Autonomous Republic of Crimea
 6 <NA>                      <NA>      <NA>                         
 7 Вінницька область         1509515   Vinnytsya oblast             
 8 Міське населення          789588     Urban population            
 9 Сільське населення        719927     Rural population            
10 Вінницький район          647966    Vinnytskyi district          
# ... with 1,744 more rows
# i Use `print(n = ...)` to see more rows
```
…
